…
world_DT = full_join(countryAll, world_map, by = c("英文國名簡稱" = "region") )
```

### 台灣大專院校的學生最喜歡去哪些國家進修交流呢？

``` r
group_by(TWstu,`進修交流國家(地區)別`)%>%
  summarise(台灣學生交換之總數=n()) %>%
  arrange(desc(台灣學生交換之總數))
```

    ## # A tibble: 82 x 2
    ##    `進修交流國家(地區)別` 台灣學生交換之總數
    ##    <chr>                               <int>
    ##  1 大陸地區                             4063
    ##  2 日本                                 3125
    ##  3 大韓民國(南韓)                       2080
    ##  4 美國                                 1839
    ##  5 德意志聯邦共和國                     1520
    ##  6 法國                                 1006
    ##  7 荷蘭王國                              589
    ##  8 捷克共和國                            531
    ##  9 西班牙王國                            500
    ## 10 加拿大                                482
    ## # ... with 72 more rows

### 哪間大學的出國交流學生數最多呢？

``` r
group_by(TWstu,學校名稱)%>%
  summarise(台灣學生交換之總數=n()) %>%
  arrange(desc(台灣學生交換之總數))
```

    ## # A tibble: 140 x 2
    ##    學校名稱         台灣學生交換之總數
    ##    <chr>                         <int>
    ##  1 國立臺灣大學                   2064
    ##  2 國立政治大學                   1667
    ##  3 國立交通大學                    729
    ##  4 國立清華大學                    705
    ##  5 國立臺灣師範大學                614
    ##  6 淡江大學                        608
    ##  7 國立中山大學                    587
    ##  8 輔仁大學                        524
    ##  9 靜宜大學                        502
    ## 10 國立臺灣科技大學                481
    ## # ... with 130 more rows
…
### 台灣學生最喜歡去哪些國家留學呢？

``` r
group_by(worldTw,國別)%>%
  summarise(總人數=sum(總人數))%>%
  arrange(desc(總人數))
```

    ## # A tibble: 49 x 2
    ##    國別     總人數
    ##    <chr>     <dbl>
    ##  1 美國      63770
    ##  2 澳大利亞  30155
    ##  3 日本      28433
    ##  4 加拿大    13359
    ##  5 英國      11510
    ##  6 德國       5256
    ##  7 紐西蘭     2926
    ##  8 法國       2083
    ##  9 波蘭       2077
    ## 10 馬來西亞   1513
    ## # ... with 39 more rows
…
